0.2752525943382376,1,0
0.2717346736218223,0,0
0.29218765098828164,3,0
0.3135400710231773,2,0
0.2662530614494792,2,0
0.2854184717061551,0,0
0.24346870985758182,7,0
0.2741387182066508,2,0
0.3039238090174823,1,0
0.300355157205769,0,0
0.2894339146625597,0,0
0.3108953217203259,0,0
0.3279194809411149,0,0
0.33297670645827443,0,0
0.40268896844693464,0,0
0.4047880666580047,0,0
0.3762724285392829,0,0
0.37377779884836226,0,0
