ear,blink,target
0.08778919444444434,12.0,1
0.0030641888888888885,0.0,1
0.07813446111111115,2.0,1
0.003785099999999999,1.0,1
0.00012217777777777776,0.0,1
0.0022678999999999998,0.0,1
0.0133564,4.0,1
0.0022297000000000003,0.0,1
0.004046383333333333,0.0,1
0.026454211111111122,2.0,1
0.10553668333333342,14.0,1
0.14188155000000002,7.0,1
0.15376954444444435,0.0,1
0.0634445944444445,0.0,1
0.044238094444444424,1.0,1
0.007294088888888888,0.0,1
0.03788528333333333,0.0,1
0.12048763333333337,2.0,1
0.015610549999999992,0.0,1
0.05622916666666671,1.0,1
0.03898716666666664,0.0,1
0.07059426111111114,0.0,1
0.019202205555555563,0.0,1
0.14500112777777757,1.0,1
0.08100521111111111,1.0,1
0.03357082222222223,1.0,1
0.02306084444444444,2.0,1
0.09325704999999998,3.0,1
0.05114652222222226,0.0,1
0.027728222222222227,0.0,1
0.007666699999999997,1.0,1
0.001043438888888889,0.0,1
0.027045088888888867,0.0,1
0.0024260166666666668,0.0,1
0.028253394444444458,2.0,1
0.027509116666666663,3.0,1
0.09145911666666665,2.0,1
0.026332183333333332,5.0,1
0.012643694444444442,0.0,1
0.0887993777777778,0.0,1
0.11464138333333335,1.0,1
0.1422986222222222,1.0,1
0.02339240555555557,1.0,1
0.0053114055555555555,0.0,1
0.08313607222222222,7.0,1
0.06186656666666669,0.0,1
0.25782356111111154,0.0,0
0.11707230555555556,1.0,1
0.04832714444444443,0.0,1
0.021590727777777773,0.0,1
0.03922853333333335,6.0,1
0.08441763888888894,5.0,1
0.0655677833333333,0.0,1
0.12750697222222218,2.0,1
0.06856274444444449,10.0,1
0.0002967166666666666,0.0,1
0.00039630000000000004,0.0,1
0.001805555555555556,1.0,1
0.02117128888888889,2.0,1
0.008512450000000001,3.0,1
0.0004933277777777777,0.0,1
0.012973899999999998,0.0,1
0.0029873499999999993,0.0,1
0.03159799999999997,2.0,1
0.0733814055555556,7.0,1
0.00949753333333333,3.0,1
0.010053277777777776,0.0,1
0.013566122222222221,1.0,1
0.0024172611111111116,1.0,1
0.15115178333333346,0.0,1
0.11687865555555549,0.0,1
0.21819221111111123,0.0,0
0.25928671111111057,2.0,0
0.10528521666666672,20.0,1
0.003979883333333334,0.0,1
0.07790453333333333,3.0,1
0.19887685555555565,19.0,1
0.24059168333333364,29.0,0
0.2549907500000002,21.0,0
0.2583500777777777,22.0,0
0.23406788333333325,11.0,0
0.25293206666666684,24.0,0
0.1749924555555553,39.0,0
0.2600697500000004,29.0,0
0.2676871944444443,31.0,0
0.23008194999999973,38.0,0
0.21379160555555576,25.0,0
0.22958897777777798,29.0,0
0.16262413888888871,13.0,1
0.2164227555555555,11.0,0
0.2269238999999997,17.0,0
0.18968993333333345,25.0,0
0.15853323333333327,18.0,1
0.1338172444444443,27.0,0
0.1291124611111111,17.0,1
0.18397876111111108,21.0,0
0.19355561666666668,21.0,0
0.14935750000000014,13.0,1
0.19741287777777738,31.0,0
0.0708057833333333,12.0,1
0.08919345,30.0,0
0.19149561666666687,54.0,0
0.1225487555555555,27.0,0
0.0187254,6.0,1
0.10973559444444438,21.0,0
0.1413768611111112,27.0,0
0.20880870000000015,9.0,0
0.16790335555555577,16.0,1
0.23400538888888942,8.0,0
0.28241161666666625,7.0,0
0.18672348333333352,17.0,1
0.12037233333333343,12.0,1
0.15097092222222216,5.0,1
0.20223877777777788,19.0,0
0.136330072222222,31.0,0
0.1491643944444445,40.0,0
0.18257671111111076,29.0,0
0.18774276666666678,29.0,0
0.10974817777777789,4.0,1
0.09723187222222214,11.0,1
0.21376638888888905,18.0,0
0.1243005722222221,30.0,0
0.04917452222222223,11.0,1
0.07697857777777785,4.0,1
0.07388484444444447,3.0,1
0.27810049444444435,17.0,0
0.1901468999999999,34.0,0
0.0027414222222222223,0.0,1
0.03275703888888891,8.0,1
0.034395677777777786,6.0,1
0.029455744444444463,8.0,1
0.26685854444444446,14.0,0
0.19267578888888878,7.0,1
0.18107515555555553,39.0,0
0.16972734444444443,34.0,0
0.11259510555555553,14.0,1
0.14471327222222224,8.0,1
0.12089591111111102,6.0,1
0.05018523333333329,13.0,1
0.2378097555555553,8.0,0
0.08266368333333327,19.0,1
0.17880367777777811,25.0,0
0.23887810000000018,42.0,0
0.1588379055555553,13.0,1
0.22499408333333373,18.0,0
0.26572233888888913,25.0,0
0.25738216111111073,31.0,0
0.17164820000000014,23.0,0
0.24203048333333385,21.0,0
0.22583503333333318,29.0,0
0.09164109444444445,23.0,0
0.22902956666666674,35.0,0
0.20812611111111132,52.0,0
0.20464873333333305,39.0,0
0.2574433999999993,49.0,0
0.2590038944444439,35.0,0
0.20714321111111147,53.0,0
0.24190899999999974,33.0,0
0.11513247222222214,10.0,1
0.047659416666666676,3.0,1
0.19118442777777775,25.0,0
0.1794774222222224,55.0,0
0.15242431111111138,43.0,0
0.17806515000000006,32.0,0
0.2809428666666667,10.0,0
0.18361299444444426,5.0,1
0.17259178888888874,2.0,1
0.06574245000000002,1.0,1
0.23489845000000012,19.0,0
0.24448952777777772,18.0,0
0.1266089333333333,7.0,1
0.15186500000000003,17.0,1
0.06327236111111108,5.0,1
0.10191118888888884,7.0,1
0.07873650555555559,5.0,1
0.21688052222222226,12.0,0
0.24098973888888836,17.0,0
0.21764068333333358,19.0,0
0.326303238888888,9.0,0
0.15887681111111118,17.0,1
0.26150009999999946,35.0,0
0.2935195888888884,18.0,0
0.29376196111111036,10.0,0
0.2484347888888887,2.0,0
0.24833272222222247,16.0,0
0.23532582222222195,17.0,0
0.17607728888888882,24.0,0
0.09402398888888873,7.0,1
0.14294936111111112,4.0,1
0.06860488333333332,9.0,1
0.2617875388888882,34.0,0
0.21595965555555569,21.0,0
0.17133182222222199,21.0,0
0.22274440555555497,26.0,0
0.2837421888888887,26.0,0
0.28701697222222305,24.0,0
0.2842314388888885,41.0,0
0.21208352222222193,26.0,0
0.21792696111111134,24.0,0
0.15491281111111094,29.0,0
0.21868192222222219,25.0,0
0.24100344444444496,47.0,0
0.18235762222222204,44.0,0
0.020259772222222222,1.0,1
0.053952599999999996,6.0,1
0.27970131666666787,23.0,0
0.1352281111111112,20.0,1
0.24972937777777854,38.0,0
0.16353268333333307,28.0,0
0.09319406666666677,18.0,1
0.22411779444444427,31.0,0
0.23070578888888882,58.0,0
0.183925294444445,59.0,0
0.13361476666666655,23.0,0
0.09294144444444451,8.0,1
0.19739199999999946,15.0,1
0.26788855555555646,33.0,0
0.2043720722222223,23.0,0
0.17793126666666698,37.0,0
0.22641590555555585,11.0,0
0.2591645555555551,34.0,0
0.2508724111111108,74.0,0
0.2537862999999998,51.0,0
0.22497409999999976,45.0,0
0.1494864833333332,12.0,1
0.10852657777777766,2.0,1
0.0810477666666667,1.0,1
0.13966075555555546,14.0,1
0.2650319333333337,1.0,0
0.16866485000000003,1.0,1
0.07331171666666671,2.0,1
0.16976707777777805,4.0,1
0.2589371444444438,41.0,0
0.28318984999999935,18.0,0
0.27642376111111194,20.0,0
0.24289091666666693,24.0,0
0.1887283222222224,14.0,1
0.1860568333333332,13.0,1
0.1337728666666669,15.0,1
0.22999102777777758,17.0,0
0.250271222222222,19.0,0
0.1852195555555555,31.0,0
0.20747340555555516,30.0,0
0.2298350444444441,51.0,0
0.21463606111111136,38.0,0
0.2041217222222225,35.0,0
0.22025857777777771,41.0,0
0.24619816666666686,38.0,0
0.27847972777777724,7.0,0
0.2869821388888889,26.0,0
0.24869776111111164,6.0,0
0.23059168333333405,18.0,0
0.25982755555555576,18.0,0
0.2155004222222221,34.0,0
0.23912429444444477,34.0,0
0.18751998333333345,52.0,0
0.24704578333333338,35.0,0
0.2382532333333329,45.0,0
0.232075566666667,73.0,0
0.22318559444444366,25.0,0
0.19014692222222224,44.0,0
0.24356974444444354,18.0,0
0.2217664777777784,19.0,0
0.2289516999999995,54.0,0
0.20091565555555566,36.0,0
0.23461929444444501,59.0,0
0.217931672222222,68.0,0
0.10073148333333327,12.0,1
0.007235711111111111,4.0,1
0.06574805000000004,30.0,0
0.024521494444444427,11.0,1
0.05018905555555557,1.0,1
0.01308908888888889,1.0,1
0.1342301944444443,11.0,1
0.10582894444444435,17.0,1
0.019019794444444432,8.0,1
0.004880061111111112,1.0,1
0.037599022222222216,4.0,1
0.050900177777777784,11.0,1
0.0020742666666666663,0.0,1
0.001177888888888889,0.0,1
0.0040883,3.0,1
0.0009892444444444446,1.0,1
0.0002853944444444444,0.0,1
0.0006169,0.0,1
0.004341555555555556,0.0,1
0.008641227777777776,2.0,1
0.0034311777777777776,0.0,1
0.0004886000000000001,0.0,1
0.001853394444444445,0.0,1
0.0030945166666666675,2.0,1
0.0001930111111111111,0.0,1
0.00013266111111111113,0.0,1
0.0011694000000000001,0.0,1
0.0012205833333333333,0.0,1
0.0023811166666666667,0.0,1
0.0086147,0.0,1
0.013790644444444446,1.0,1
0.026753044444444447,5.0,1
0.0558647555555555,5.0,1
0.042366316666666654,8.0,1
0.14099690555555558,13.0,1
0.23192968888888935,14.0,0
0.02542647222222222,4.0,1
0.006289433333333333,0.0,1
0.07221940555555553,6.0,1
0.07299404999999998,12.0,1
0.01695790555555556,2.0,1
0.009840344444444449,6.0,1
0.029271277777777785,4.0,1
0.061057766666666666,23.0,0
0.05390661111111109,27.0,0
0.027332366666666663,11.0,1
0.03433679444444446,12.0,1
0.04972460555555555,10.0,1
0.07671657222222224,15.0,1
0.0009740833333333334,1.0,1
0.039325516666666685,3.0,1
0.07119306111111112,17.0,1
0.03068325,4.0,1
0.07546760555555564,16.0,1
0.050593166666666654,4.0,1
0.0895619277777778,22.0,0
0.08205092777777774,11.0,1
0.03460832222222223,3.0,1
0.01697355,1.0,1
0.014230000000000003,0.0,1
0.023831100000000004,0.0,1
0.13102897222222226,26.0,0
0.11875321666666655,13.0,1
0.1570618777777779,35.0,0
0.17815886666666697,11.0,1
0.08211601111111107,0.0,1
0.0034358166666666663,0.0,1
0.1279491944444445,4.0,1
0.01033255555555556,6.0,1
0.0008332611111111112,0.0,1
0.005412277777777777,1.0,1
0.008342005555555556,3.0,1
0.0012986333333333332,0.0,1
0.01371942777777777,6.0,1
0.11007999444444455,25.0,0
0.004330638888888889,0.0,1
0.14199528888888868,0.0,1
0.002315205555555556,0.0,1
0.009066066666666667,2.0,1
0.04819597777777776,4.0,1
0.039854199999999985,2.0,1
0.03970903333333335,2.0,1
0.0700195166666667,2.0,1
0.06756083333333333,0.0,1
0.04086121111111109,1.0,1
0.030121011111111134,0.0,1
0.028759255555555564,0.0,1
0.08234536111111104,7.0,1
0.015576144444444448,4.0,1
0.020082477777777778,2.0,1
0.0003386388888888889,0.0,1
0.009420833333333335,0.0,1
0.007446983333333332,1.0,1
0.00017286666666666665,0.0,1
0.0007201999999999999,0.0,1
0.00042275,0.0,1
0.01016675,0.0,1
0.02342920555555555,2.0,1
0.0013693,0.0,1
0.008630572222222223,4.0,1
0.0018127388888888889,0.0,1
0.00860705,1.0,1
0.08979869444444448,5.0,1
0.014777927777777778,2.0,1
0.05047702222222226,6.0,1
0.003535161111111112,0.0,1
0.024962399999999996,2.0,1
0.013939850000000004,0.0,1
0.002797616666666667,1.0,1
0.0018639722222222226,0.0,1
0.009435116666666665,0.0,1
0.0052447222222222235,1.0,1
0.045161294444444444,4.0,1
0.051120755555555564,0.0,1
0.02863876111111109,6.0,1
0.008499605555555555,0.0,1
0.008920500000000001,0.0,1
0.02308809444444445,1.0,1
0.0021078111111111114,0.0,1
0.04615640000000003,5.0,1
0.04101940555555555,3.0,1
0.10896411111111104,15.0,1
0.04267494444444447,2.0,1
0.02332536111111111,6.0,1
0.11166242222222218,2.0,1
0.17909341111111085,14.0,1
0.04421313333333332,7.0,1
0.014062594444444442,2.0,1
0.07056395555555557,5.0,1
0.005792788888888889,0.0,1
0.004849522222222223,0.0,1
0.005778361111111112,0.0,1
0.008330449999999998,5.0,1
0.0036980111111111114,0.0,1
0.00011008333333333333,0.0,1
0.005863672222222223,1.0,1
0.002080222222222222,1.0,1
0.0008777888888888888,1.0,1
0.0039640944444444435,1.0,1
0.03927907222222224,2.0,1
0.00644466111111111,2.0,1
0.0034038944444444437,2.0,1
0.0008056444444444444,0.0,1
0.003656505555555555,2.0,1
0.0037990944444444455,3.0,1
0.0027148499999999996,1.0,1
0.004913272222222222,0.0,1
0.002701183333333333,0.0,1
0.0020312277777777775,1.0,1
0.00032623888888888883,0.0,1
0.01343376111111111,1.0,1
0.025277633333333344,2.0,1
0.014815638888888889,0.0,1
0.03311124444444444,5.0,1
0.011010283333333334,1.0,1
0.002587561111111111,0.0,1
0.023228099999999995,10.0,1
0.019475016666666668,2.0,1
0.0022430055555555553,0.0,1
0.004745977777777776,1.0,1
0.00022221666666666668,0.0,1
0.012852999999999998,8.0,1
0.005372055555555558,1.0,1
0.01189805555555555,3.0,1
0.003052133333333333,1.0,1
0.001377722222222222,0.0,1
0.1332915222222222,3.0,1
0.029145922222222214,8.0,1
0.01802737777777777,2.0,1
0.2004629333333336,5.0,1
0.043896127777777745,12.0,1
0.005059261111111113,3.0,1
0.18016295000000013,17.0,1
0.17934559999999997,22.0,0
0.19340102777777773,7.0,1
0.2008958055555554,10.0,1
0.22732430555555566,10.0,0
0.1158224555555557,17.0,1
0.22134586666666675,4.0,0
0.0464865277777778,1.0,1
0.12667364444444454,8.0,1
0.19017383333333357,13.0,1
0.0949135055555555,11.0,1
0.1065478833333333,21.0,0
0.25829239444444485,21.0,0
0.25968691111111075,30.0,0
0.2896939833333342,17.0,0
0.11832179444444434,30.0,0
0.062261794444444386,5.0,1
0.218844077777778,46.0,0
0.23884322222222223,14.0,0
0.1944312500000005,40.0,0
0.2210077222222222,15.0,0
0.2332236722222223,32.0,0
0.2701505777777775,11.0,0
0.20739580000000002,29.0,0
0.17581921111111115,6.0,1
0.10513843333333338,10.0,1
0.1701336388888889,30.0,0
0.13175852222222226,19.0,1
0.11327082777777783,16.0,1
0.02743204444444444,10.0,1
0.003427038888888888,2.0,1
0.1039633333333334,31.0,0
0.2565982555555559,24.0,0
0.24827495555555476,42.0,0
0.2781296833333331,24.0,0
0.2182407666666667,42.0,0
0.12318898888888899,31.0,0
0.04777020000000009,18.0,1
0.0720145555555555,3.0,1
0.15455543888888892,5.0,1
0.10495741666666657,1.0,1
0.03133541111111113,14.0,1
0.18789331111111093,11.0,1
0.19597818888888865,17.0,1
0.26485096666666674,13.0,0
0.2629354666666661,5.0,0
0.22485906666666647,5.0,0
0.20441638888888874,6.0,0
0.16532935,8.0,1
0.001622238888888889,0.0,1
0.0013151666666666665,0.0,1
0.0011911722222222223,0.0,1
0.029432872222222208,2.0,1
0.014108166666666672,2.0,1
0.21811157777777762,31.0,0
0.23920956111111097,11.0,0
0.029101283333333332,0.0,1
0.0588606555555556,4.0,1
0.15442876111111103,0.0,1
0.040058355555555515,8.0,1
0.22489459999999972,9.0,0
0.29491723888888915,1.0,0
0.16173201111111116,13.0,1
0.28104429444444384,4.0,0
0.22134365555555577,1.0,0
0.20120913888888925,1.0,1
0.25663174999999905,2.0,0
0.33937002222222284,4.0,0
0.29936372777777814,2.0,0
0.309838127777778,6.0,0
0.3508152444444446,2.0,0
0.33604584444444474,0.0,0
0.2727752166666673,6.0,0
0.08725791111111109,4.0,1
0.06382712222222223,2.0,1
0.2291633055555552,2.0,0
0.21797497777777813,5.0,0
0.22232423888888836,3.0,0
0.16881938888888878,2.0,1
0.13633843888888886,5.0,1
0.19871268888888874,4.0,1
0.31729352777777764,4.0,0
0.07994627777777778,24.0,0
0.13672408888888898,14.0,1
0.18814897222222254,9.0,1
0.31597177222222256,4.0,0
0.2707497222222222,1.0,0
0.18368442222222203,0.0,1
0.056031750000000005,1.0,1
0.1975466666666669,4.0,1
0.020969011111111113,1.0,1
0.22244323888888937,3.0,0
0.22226581111111113,3.0,0
0.12076713333333348,11.0,1
0.11657072777777773,20.0,1
0.13293577222222205,20.0,1
0.15780857777777774,7.0,1
0.2751170555555563,0.0,0
0.2596265111111118,1.0,0
0.1801599666666667,4.0,1
0.16891028333333322,1.0,1
0.2498232055555559,21.0,0
0.28859936111111095,0.0,0
0.25647392777777844,2.0,0
0.25961845555555574,24.0,0
0.20046428888888948,6.0,1
0.2804606888888881,31.0,0
0.2948462666666666,2.0,0
0.25720692777777854,0.0,0
0.2976604055555552,4.0,0
0.16632420555555522,1.0,1
0.2530479555555552,6.0,0
0.1950017722222224,11.0,1
0.24739191666666682,1.0,0
0.2677490888888891,4.0,0
0.17196003888888925,3.0,1
0.19389774444444438,5.0,1
0.033749788888888896,1.0,1
0.0006840833333333333,1.0,1
0.0003667444444444444,0.0,1
0.0001583277777777778,0.0,1
0.07257882777777777,16.0,1
0.08140377222222225,13.0,1
0.04288994999999999,12.0,1
0.1212019555555555,38.0,0
0.14608327222222248,13.0,1
0.10807887222222233,10.0,1
0.1030375388888888,32.0,0
0.08209963333333334,4.0,1
0.006724288888888891,2.0,1
0.07034097777777773,10.0,1
0.25168120555555606,9.0,0
0.20692971666666707,9.0,0
0.1783171722222224,38.0,0
0.1693638944444445,53.0,0
0.1770738777777776,25.0,0
0.21961559999999994,34.0,0
0.21240580555555572,34.0,0
0.13182534444444433,24.0,0
0.186554388888889,11.0,1
0.048503822222222256,8.0,1
0.010906372222222224,1.0,1
0.07505175,23.0,0
0.08841550555555541,21.0,0
0.016630177777777783,3.0,1
0.03631465555555554,9.0,1
0.061873222222222204,18.0,1
0.16368152222222254,40.0,0
0.2009440111111113,11.0,1
0.15388548888888867,22.0,0
0.1365695222222222,13.0,1
0.09335204444444443,2.0,1
0.09668178888888886,2.0,1
0.10883466666666682,4.0,1
0.010504150000000002,2.0,1
0.12472935555555544,4.0,1
0.2149032277777773,23.0,0
0.12784257777777788,15.0,1
0.17783527222222228,17.0,1
0.17558377222222238,16.0,1
0.0006049944444444444,1.0,1
0.06519884999999999,5.0,1
0.1236854166666666,14.0,1
0.16378023888888876,28.0,0
0.11209305000000004,43.0,0
0.18513848333333344,60.0,0
0.22551168888888873,59.0,0
0.1707647055555555,35.0,0
0.20480082777777803,12.0,0
0.05508646666666671,4.0,1
0.09084092777777777,14.0,1
0.15568873333333347,24.0,0
0.1382951888888888,20.0,1
0.0907779833333332,16.0,1
0.20952604999999977,22.0,0
0.2652043833333334,13.0,0
0.25926307222222245,15.0,0
0.1713246777777782,41.0,0
0.2098982666666668,47.0,0
0.20428442777777803,35.0,0
0.26410944444444484,14.0,0
0.2601565055555545,7.0,0
0.10457813333333327,3.0,1
0.22903199444444494,23.0,0
0.22394626111111102,41.0,0
0.1729489166666669,22.0,0
0.13420228333333328,25.0,0
0.26839563888888857,2.0,0
0.1734530333333333,4.0,1
0.1565647277777778,9.0,1
0.13842357777777786,6.0,1
0.08385252222222213,4.0,1
0.05381622777777789,3.0,1
0.08213853888888893,20.0,1
0.21526889444444414,56.0,0
0.1850273833333332,17.0,1
0.17771534444444415,2.0,1
0.03257527777777778,1.0,1
0.03618614444444445,2.0,1
0.008275438888888887,2.0,1
0.023059127777777792,1.0,1
0.02049507222222222,3.0,1
0.14504963333333362,29.0,0
0.003510288888888888,2.0,1
0.006898377777777778,3.0,1
0.03200596666666664,13.0,1
0.0037020277777777785,1.0,1
0.0056653277777777775,0.0,1
0.024773361111111128,1.0,1
0.0704284444444445,4.0,1
0.22613784444444437,9.0,0
0.2678950166666672,11.0,0
0.09132741111111116,4.0,1
0.12428488333333308,13.0,1
0.14892142222222188,2.0,1
0.22805011666666736,50.0,0
0.2391414000000001,32.0,0
0.061731461111111045,9.0,1
0.1332389277777776,5.0,1
0.16130001111111106,4.0,1
0.13503540555555554,10.0,1
0.0589319388888889,2.0,1
0.08608510000000004,10.0,1
0.21332094444444424,20.0,0
0.2654934111111106,13.0,0
0.11718804999999981,5.0,1
0.2085158166666666,8.0,0
0.09518500000000002,8.0,1
0.16950082222222201,9.0,1
0.21138237222222264,5.0,0
0.055451738888888824,2.0,1
0.04190198888888891,1.0,1
0.2260592666666666,22.0,0
0.1903653166666671,8.0,1
0.0330502722222222,4.0,1
0.011259200000000002,0.0,1
0.0460718833333334,5.0,1
0.016206344444444448,2.0,1
0.09511211111111122,12.0,1
0.0100448,1.0,1
0.007653299999999998,2.0,1
0.06162478888888889,7.0,1
0.012627166666666665,6.0,1
0.06524107777777775,11.0,1
0.0024676055555555554,0.0,1
0.0012349333333333333,0.0,1
0.008397694444444445,0.0,1
0.1733738277777781,14.0,1
0.009485255555555556,0.0,1
0.04202418333333331,7.0,1
0.11621344444444429,13.0,1
0.015223422222222222,1.0,1
0.04978219444444451,3.0,1
0.22697505555555522,20.0,0
0.0018387944444444445,0.0,1
0.03450400555555554,2.0,1
0.2578976333333329,18.0,0
0.19115067777777764,16.0,1
0.10262461666666668,5.0,1
0.29384776111111244,6.0,0
0.25762042777777766,17.0,0
0.23011192222222232,34.0,0
0.29031740555555535,10.0,0
0.2992085222222227,5.0,0
0.24860286666666667,22.0,0
0.13797459444444454,4.0,1
0.11448113888888893,11.0,1
0.1265329777777777,16.0,1
0.1035514611111112,9.0,1
0.13404381666666676,21.0,0
0.17366477222222212,16.0,1
0.17384438888888926,24.0,0
0.12246459444444431,5.0,1
0.022468233333333344,0.0,1
0.12182015555555555,5.0,1
0.11361333333333326,4.0,1
0.2862854277777769,3.0,0
0.252141894444444,22.0,0
0.31674072777777773,5.0,0
0.3003076000000004,1.0,0
0.1361267944444444,3.0,1
0.19584714999999986,1.0,1
0.20061805000000016,11.0,1
0.2733517277777785,8.0,0
0.20550250000000006,16.0,0
0.2547863333333336,6.0,0
0.24603346111111116,6.0,0
0.255087611111111,7.0,0
0.20108276666666647,2.0,1
0.023952150000000005,5.0,1
0.08222876111111113,4.0,1
0.20426749999999985,9.0,0
0.2668446055555555,25.0,0
0.017046355555555552,2.0,1
0.021421111111111103,3.0,1
0.06672189444444446,23.0,0
0.03312597777777779,3.0,1
0.013812644444444447,1.0,1
0.0003087611111111111,0.0,1
0.007297455555555554,7.0,1
0.0034412333333333346,0.0,1
0.03635765,12.0,1
0.004370433333333333,1.0,1
0.05215232222222221,1.0,1
0.0028409,0.0,1
0.009886761111111112,0.0,1
0.014924827777777781,4.0,1
0.0021942444444444445,1.0,1
0.009121699999999998,4.0,1
0.003480372222222222,1.0,1
0.024687894444444445,9.0,1
0.0012210222222222222,0.0,1
0.0017297222222222223,1.0,1
0.0020204888888888882,0.0,1
0.004941199999999999,1.0,1
0.03568687222222222,2.0,1
0.11003624999999997,6.0,1
0.07378254444444443,4.0,1
0.12513341666666655,15.0,1
0.18097269444444436,10.0,1
0.06219171666666662,7.0,1
0.0373839222222222,2.0,1
0.08589537222222221,19.0,1
0.123604961111111,13.0,1
0.09504933888888888,8.0,1
0.024383866666666667,3.0,1
0.012485822222222226,1.0,1
0.010720316666666663,1.0,1
0.0005249499999999999,0.0,1
0.056281138888888915,0.0,1
0.12667523333333328,21.0,0
0.060287311111111075,1.0,1
0.12838094444444437,17.0,1
0.1332069500000001,9.0,1
0.11856497222222212,4.0,1
0.028498838888888916,2.0,1
0.10644710000000004,1.0,1
0.14209548333333322,6.0,1
0.16768688888888883,10.0,1
0.10298912222222226,0.0,1
0.08331093888888888,2.0,1
0.1132127222222222,6.0,1
0.09636151666666662,6.0,1
0.20316439444444456,7.0,0
0.18826436666666652,9.0,1
0.15444550000000007,15.0,1
0.015670694444444442,3.0,1
0.09548613333333325,7.0,1
0.21995498888888898,12.0,0
0.1777518666666667,8.0,1
0.20214063888888878,1.0,0
0.15122379999999971,5.0,1
0.12000190555555562,1.0,1
0.06565634999999995,12.0,1
0.12999943888888876,23.0,0
0.18384798333333321,3.0,1
0.10534872222222222,8.0,1
0.028044627777777786,9.0,1
0.0689084666666667,8.0,1
0.1066012166666666,1.0,1
0.13232230555555538,2.0,1
0.18449198888888887,5.0,1
0.12874266111111102,6.0,1
0.13439483888888892,6.0,1
0.0353137888888889,5.0,1
0.02932684444444444,0.0,1
0.1115204833333334,2.0,1
0.19454431111111145,5.0,1
0.19332898888888894,6.0,1
0.15391925555555547,14.0,1
0.13082917222222212,0.0,1
0.09706929999999994,4.0,1
0.21609696666666675,15.0,0
0.13109727777777783,10.0,1
0.14829427222222225,5.0,1
0.13781481666666667,7.0,1
0.17858773333333322,5.0,1
0.20978976666666696,2.0,0
0.10182847222222216,2.0,1
0.268198105555555,30.0,0
0.18628534444444458,7.0,1
0.14018535555555553,4.0,1
0.17185819999999993,4.0,1
0.20269990555555548,11.0,0
0.1704562166666668,18.0,1
0.16279319444444446,17.0,1
0.07350834444444446,6.0,1
0.0012438500000000001,0.0,1
0.04944318333333334,6.0,1
0.04220303888888886,2.0,1
0.003592116666666667,0.0,1
0.004511811111111112,0.0,1
0.0005098777777777778,0.0,1
0.008094555555555558,3.0,1
0.0001423388888888889,0.0,1
0.0012520499999999998,0.0,1
0.02266584999999999,1.0,1
0.007492577777777779,3.0,1
0.018370649999999995,5.0,1
0.007008072222222221,2.0,1
0.0024430888888888887,2.0,1
0.006385855555555557,0.0,1
0.04212355000000002,2.0,1
0.033494855555555536,0.0,1
0.08816079999999997,18.0,1
0.003918844444444445,1.0,1
0.0010294944444444443,1.0,1
0.0032469055555555556,0.0,1
0.00044965,0.0,1
0.003505688888888888,0.0,1
0.002727966666666667,0.0,1
0.00028891111111111113,0.0,1
0.006132372222222222,0.0,1
0.0012286222222222221,0.0,1
0.00013046666666666668,0.0,1
0.003944105555555555,3.0,1
0.00016622777777777778,0.0,1
0.03494170555555555,4.0,1
0.008051955555555556,0.0,1
0.05313842777777776,8.0,1
0.0037043166666666655,0.0,1
0.004222872222222222,3.0,1
0.009269477777777778,0.0,1
0.040779700000000016,1.0,1
0.008643005555555555,3.0,1
0.0022173500000000003,0.0,1
0.001330227777777778,0.0,1
0.005445816666666667,0.0,1
0.048102588888888936,8.0,1
0.08772788888888884,2.0,1
0.13140628333333332,20.0,1
0.15360607222222228,4.0,1
0.0398423111111111,13.0,1
0.14426812777777784,18.0,1
0.1526587500000002,29.0,0
0.08563091666666658,16.0,1
0.03922830555555555,15.0,1
0.09089979444444443,12.0,1
0.10574667222222217,22.0,0
0.031053522222222227,8.0,1
0.0643437055555555,6.0,1
0.10044256666666666,14.0,1
0.14965549444444448,14.0,1
0.12456877222222225,24.0,0
0.09452451666666672,18.0,1
0.05403717222222224,7.0,1
0.21615837222222212,17.0,0
0.07549613333333334,8.0,1
0.02427097222222224,1.0,1
0.06575690555555551,6.0,1
0.00044767222222222216,0.0,1
0.08058622777777784,22.0,0
0.08692438333333331,9.0,1
0.1458174888888886,27.0,0
0.0581023944444444,6.0,1
0.021611722222222223,10.0,1
0.033159972222222216,13.0,1
0.004540077777777778,0.0,1
0.00388465,0.0,1
0.018886077777777774,2.0,1
0.025021888888888885,5.0,1
0.03450176111111113,10.0,1
0.01132058888888889,2.0,1
0.02920870555555556,4.0,1
0.002065011111111111,0.0,1
0.001179461111111111,0.0,1
0.05523817777777776,9.0,1
0.005722544444444444,0.0,1
0.014135122222222221,7.0,1
0.003685322222222222,1.0,1
0.053633066666666646,9.0,1
0.07352817222222217,3.0,1
0.0610345,9.0,1
0.004050300000000001,0.0,1
0.004870144444444445,0.0,1
0.015564722222222225,5.0,1
0.08641167222222229,8.0,1
0.02682614999999998,0.0,1
0.06932182222222222,9.0,1
0.07279557222222229,5.0,1
0.0031764388888888898,1.0,1
0.0014462666666666666,1.0,1
0.034165705555555564,8.0,1
0.0814793444444445,8.0,1
0.024007494444444437,10.0,1
0.005494988888888891,0.0,1
0.01939536666666667,4.0,1
0.01193581666666667,4.0,1
0.0008644333333333333,0.0,1
0.051616627777777764,15.0,1
0.029550349999999996,11.0,1
0.03443904444444445,7.0,1
0.02358689444444445,1.0,1
0.01514793333333333,4.0,1
0.011943038888888886,3.0,1
0.0015595722222222221,0.0,1
0.05406764999999994,18.0,1
0.1436880666666666,20.0,1
0.005506349999999998,1.0,1
0.012007955555555552,6.0,1
0.006686416666666667,2.0,1
0.02445007222222222,2.0,1
0.055359022222222234,12.0,1
0.018656205555555555,15.0,1
0.01739023888888889,4.0,1
0.03825263888888891,13.0,1
0.00841837777777778,1.0,1
0.0007469277777777777,0.0,1
0.00107575,0.0,1
0.012794366666666663,4.0,1
0.005881244444444444,3.0,1
0.0004541055555555555,0.0,1
0.010861405555555557,5.0,1
0.005996116666666668,1.0,1
0.00043534444444444446,0.0,1
0.0014924555555555555,0.0,1
0.010219855555555551,5.0,1
0.003488294444444445,0.0,1
0.00014265555555555555,0.0,1
0.0038818,0.0,1
0.007156844444444445,1.0,1
0.002052088888888889,0.0,1
0.12949463888888887,7.0,1
0.03034270555555558,0.0,1
0.0004115777777777777,0.0,1
0.006252761111111112,1.0,1
0.015200927777777776,4.0,1
0.0033150277777777783,0.0,1
0.017787883333333334,1.0,1
0.13003399444444436,16.0,1
0.13980488333333324,23.0,0
0.08211186666666663,14.0,1
0.11490752777777782,12.0,1
0.059157238888888825,1.0,1
0.02573271666666667,8.0,1
0.07003837777777772,11.0,1
0.13106997222222222,22.0,0
0.06933462222222223,9.0,1
0.04006931666666668,3.0,1
0.05279465000000001,6.0,1
0.03841303333333331,5.0,1
0.04818746666666668,9.0,1
0.029167927777777797,6.0,1
0.02755250555555555,10.0,1
0.021049499999999995,14.0,1
0.0439076611111111,6.0,1
0.05558119999999996,11.0,1
0.0032138444444444443,1.0,1
0.0042191500000000005,2.0,1
0.022993633333333333,3.0,1
0.0005917722222222221,1.0,1
0.0117942,5.0,1
0.002474183333333333,1.0,1
0.010649044444444446,2.0,1
0.00437545,2.0,1
0.014283549999999996,2.0,1
0.03075053888888889,4.0,1
0.013286944444444443,3.0,1
0.0006125555555555555,0.0,1
0.03554796666666665,3.0,1
0.0886723166666667,7.0,1
0.06849380000000002,9.0,1
0.02857686666666667,4.0,1
0.0011250499999999998,1.0,1
0.0006191722222222222,0.0,1
0.006878194444444444,2.0,1
0.01307893333333333,3.0,1
0.09540602777777797,12.0,1
0.05270061666666672,2.0,1
0.0007433222222222222,0.0,1
0.09304703888888895,10.0,1
0.060197161111111175,3.0,1
0.03363115000000001,5.0,1
0.08310562222222215,13.0,1
0.03930490000000004,5.0,1
0.10764125555555545,6.0,1
0.09337980555555545,11.0,1
0.02524427222222225,2.0,1
0.008890316666666669,1.0,1
0.024812227777777782,2.0,1
0.02541964444444444,4.0,1
0.04423127777777775,6.0,1
0.019098116666666665,0.0,1
0.010064499999999997,1.0,1
0.04290163888888888,0.0,1
0.04529416666666669,8.0,1
0.023889972222222243,2.0,1
0.0023312111111111113,1.0,1
0.01210606111111111,4.0,1
0.015864416666666672,2.0,1
0.016900038888888885,1.0,1
0.01985985555555556,6.0,1
0.013787455555555559,3.0,1
0.004158933333333333,0.0,1
0.005010294444444444,1.0,1
0.0008216777777777778,1.0,1
0.0007380777777777778,1.0,1
0.08139494999999992,15.0,1
0.030546800000000016,4.0,1
0.00017630555555555558,1.0,1
0.06467193888888892,10.0,1
0.041944983333333345,4.0,1
0.015848322222222214,6.0,1
0.06382922222222223,8.0,1
0.0013252055555555556,1.0,1
0.04663310555555554,5.0,1
0.07596916666666663,5.0,1
0.026420861111111117,7.0,1
0.12685952222222227,43.0,0
0.04964164444444441,13.0,1
0.012955705555555553,3.0,1
0.007839161111111109,4.0,1
0.040049022222222244,6.0,1
0.029413111111111095,6.0,1
0.005144944444444445,1.0,1
0.005865338888888889,0.0,1
0.007174372222222224,0.0,1
0.04836504444444444,18.0,1
0.0226212388888889,10.0,1
0.003722533333333333,1.0,1
0.0021802666666666665,0.0,1
0.029811483333333336,2.0,1
0.027977327777777776,7.0,1
0.001897961111111111,0.0,1
0.0001608111111111111,0.0,1
0.0013183888888888887,0.0,1
0.0019760444444444445,0.0,1
0.0013860944444444446,0.0,1
0.07396119999999999,7.0,1
0.11975757777777782,43.0,0
0.022917561111111106,5.0,1
0.1700260833333333,33.0,0
0.22745510555555581,75.0,0
0.2209400500000001,46.0,0
0.2562254555555559,45.0,0
0.2605997555555553,41.0,0
0.24133427222222192,58.0,0
0.2429654944444443,35.0,0
0.12577498333333337,17.0,1
0.272918277777778,33.0,0
0.21040059444444428,33.0,0
0.05692848333333334,8.0,1
0.03454661111111111,4.0,1
0.08099658888888889,23.0,0
0.14432382777777777,43.0,0
0.26336242222222256,30.0,0
0.2466998222222218,43.0,0
0.2173101444444439,47.0,0
0.1481925277777778,29.0,0
0.2615048388888895,16.0,0
0.25297807222222357,36.0,0
0.25584217777777857,31.0,0
0.26001582777777826,22.0,0
0.24198459444444467,51.0,0
0.22026961111111168,57.0,0
0.2725608555555564,21.0,0
0.256129655555556,33.0,0
0.28048909999999927,25.0,0
0.29627946111111125,10.0,0
0.2933395055555548,8.0,0
0.2958309777777768,8.0,0
0.2846225166666663,13.0,0
0.25593498888888927,22.0,0
0.28296725555555347,10.0,0
0.26919085555555533,26.0,0
0.25502990555555605,41.0,0
0.26990658333333395,9.0,0
0.2935864333333333,2.0,0
0.2683348888888896,15.0,0
0.2646148611111116,20.0,0
0.27043560000000033,11.0,0
0.26421377222222264,18.0,0
0.2633399333333316,13.0,0
0.23972013888888885,63.0,0
0.24209196666666696,55.0,0
0.26332818333333413,7.0,0
0.23678447777777803,53.0,0
0.1725401611111111,30.0,0
0.2574232222222224,4.0,0
0.0896313944444444,18.0,1
0.031270883333333326,3.0,1
0.2442789722222223,18.0,0
0.28659671666666686,25.0,0
0.199761411111111,46.0,0
0.0028542444444444445,0.0,1
0.018119994444444447,0.0,1
0.005196544444444445,0.0,1
0.008965749999999998,0.0,1
0.10023258888888899,7.0,1
0.2348248444444445,14.0,0
0.1827136055555553,20.0,1
0.08517047777777766,16.0,1
0.08922186666666652,8.0,1
0.10580495555555547,8.0,1
0.04111602222222223,3.0,1
0.00043523888888888894,1.0,1
0.07769958333333332,9.0,1
0.13604762777777776,26.0,0
0.08145167777777769,18.0,1
0.12465437222222234,24.0,0
0.04535503888888887,7.0,1
0.019897672222222225,4.0,1
0.07763151666666664,7.0,1
0.07808494999999992,6.0,1
0.16571742222222213,12.0,1
0.020971211111111103,4.0,1
0.050743627777777724,2.0,1
0.20180927777777757,23.0,0
0.17775665000000004,28.0,0
0.20760252222222245,25.0,0
0.19775674444444458,9.0,1
0.2582975666666668,15.0,0
0.07780271666666672,18.0,1
0.0016385555555555556,0.0,1
0.1357230666666668,27.0,0
0.12969071666666665,9.0,1
0.1810834333333335,47.0,0
0.05940293333333335,6.0,1
0.11063435555555552,7.0,1
0.2269585611111112,8.0,0
0.12302819999999987,26.0,0
0.16909659444444458,21.0,0
0.006095855555555557,2.0,1
0.009218722222222224,0.0,1
0.013799927777777776,0.0,1
0.09693618888888886,34.0,0
0.17294326111111152,44.0,0
0.12079261111111125,6.0,1
0.07797792222222219,6.0,1
0.10484169999999991,21.0,0
0.04301982777777777,5.0,1
0.09694670555555546,17.0,1
0.04794058333333338,17.0,1
8.296111111111111e-05,0.0,1
0.002824955555555556,1.0,1
0.013058261111111115,1.0,1
0.061509927777777786,6.0,1
0.03287997222222224,1.0,1
0.004873500000000001,1.0,1
0.022059061111111115,1.0,1
0.05420481666666661,5.0,1
0.053437666666666654,6.0,1
0.004671049999999999,0.0,1
0.0002804833333333333,0.0,1
0.0007848722222222222,0.0,1
0.03784902777777778,13.0,1
0.02590986111111111,6.0,1
0.14958909444444451,8.0,1
0.0025677722222222222,2.0,1
0.017325422222222223,6.0,1
0.1568159722222219,29.0,0
0.08071546111111108,14.0,1
0.03548892222222221,2.0,1
0.24133474444444453,16.0,0
0.02230191111111112,4.0,1
0.003531372222222222,1.0,1
0.009769083333333334,1.0,1
0.009416694444444445,0.0,1
0.025462727777777777,5.0,1
0.010259994444444445,0.0,1
0.05925151111111117,5.0,1
0.18555999999999961,19.0,1
0.235094211111111,17.0,0
0.23128394444444422,12.0,0
0.030020805555555547,5.0,1
0.12680523333333327,5.0,1
0.033845077777777774,1.0,1
0.015270033333333325,0.0,1
0.014061355555555554,0.0,1
0.02559817777777778,14.0,1
0.05258218333333332,11.0,1
0.036153838888888894,6.0,1
0.04783766111111114,12.0,1
0.09557697777777775,16.0,1
0.13251226111111108,5.0,1
0.08417052777777781,7.0,1
0.1348054722222222,4.0,1
0.17723131666666658,11.0,1
0.0647154833333333,3.0,1
0.10489528333333337,22.0,0
0.05774101666666662,5.0,1
0.04061804444444444,4.0,1
0.01774675555555556,4.0,1
0.09322287777777773,4.0,1
0.06010573333333334,10.0,1
0.0006680999999999998,0.0,1
0.02546404999999999,5.0,1
0.13984719444444413,44.0,0
0.14448128333333346,13.0,1
0.2473376777777776,22.0,0
0.2505008833333329,14.0,0
0.24375964444444437,28.0,0
0.19440056111111148,49.0,0
0.18579310555555534,29.0,0
0.29132384999999966,6.0,0
0.20606514444444474,51.0,0
0.22857570555555567,48.0,0
0.29121728888888954,13.0,0
0.2539369166666669,7.0,0
0.17892725555555566,1.0,1
0.18040179444444476,33.0,0
0.24461676111111125,18.0,0
0.28023491666666783,12.0,0
0.15051251666666685,2.0,1
0.029717972222222236,7.0,1
0.19592387222222216,5.0,1
0.19299872777777738,25.0,0
0.1851601999999999,15.0,1
0.20464292222222233,13.0,0
0.20487773333333334,41.0,0
0.07608413333333332,19.0,1
0.20656687777777738,36.0,0
0.23211392777777776,30.0,0
0.23633718888888894,62.0,0
0.2175241000000002,24.0,0
0.2613265222222223,40.0,0
0.21810265555555522,40.0,0
0.21477517777777771,62.0,0
0.23460111111111134,42.0,0
0.2216414277777776,35.0,0
0.19297048888888907,27.0,0
0.05257863333333337,10.0,1
0.052387577777777784,13.0,1
0.04528963888888886,12.0,1
0.2249192611111111,54.0,0
0.18525624444444455,39.0,0
0.18762502222222208,53.0,0
0.18009361666666665,31.0,0
0.2017162611111112,58.0,0
0.20986061666666694,19.0,0
0.14639645,57.0,0
0.2669703833333333,35.0,0
0.18904026111111105,40.0,0
0.22005066111111068,60.0,0
0.22196201111111066,22.0,0
0.13789419444444456,29.0,0
0.16916642777777835,33.0,0
0.18585876111111166,35.0,0
0.23123459444444447,21.0,0
0.21497511111111045,47.0,0
0.2127995444444442,53.0,0
0.21757242777777874,63.0,0
0.18117677222222298,49.0,0
0.18787851666666644,48.0,0
0.1864719222222217,41.0,0
0.19418022222222156,33.0,0
0.17170692222222178,54.0,0
0.2450220388888893,59.0,0
0.23991965555555522,34.0,0
0.2327867611111108,43.0,0
0.19363216111111128,47.0,0
0.1837586055555551,23.0,0
0.19049292222222233,34.0,0
0.19525296666666694,58.0,0
0.18411642222222216,56.0,0
0.21327845555555558,54.0,0
0.23705031111111133,31.0,0
0.15135078333333352,32.0,0
0.13676089999999985,15.0,1
0.08949234999999998,27.0,0
0.10728553888888905,35.0,0
0.11000130000000019,12.0,1
0.0765063055555556,21.0,0
0.07960366111111121,14.0,1
0.20777401666666725,45.0,0
0.24588637777777744,66.0,0
0.1883526500000002,44.0,0
0.030188522222222212,10.0,1
0.19277368888888888,34.0,0
0.1868519111111108,39.0,0
0.2234921888888888,53.0,0
0.021731849999999994,3.0,1
0.0037853722222222232,3.0,1
0.13964781111111108,45.0,0
0.15149693333333353,31.0,0
0.17061818888888894,46.0,0
0.2279726277777773,31.0,0
0.21573902222222255,32.0,0
0.1371838277777778,34.0,0
0.137885661111111,26.0,0
0.12131767222222213,7.0,1
0.21539563333333328,25.0,0
0.09629909999999989,9.0,1
0.0814844555555556,6.0,1
0.017482505555555555,1.0,1
0.11958630555555531,4.0,1
0.07017120000000009,9.0,1
0.21256614444444388,19.0,0
0.11265766666666666,12.0,1
0.03347392222222222,6.0,1
0.21407039999999966,23.0,0
0.2537013222222233,26.0,0
0.25435321111111164,19.0,0
0.14727989999999994,3.0,1
0.10597114444444448,9.0,1
0.232521088888889,34.0,0
0.11415502777777749,19.0,1
0.27323197222222206,11.0,0
0.2667842833333341,12.0,0
0.2711677944444444,33.0,0
0.2863506222222226,12.0,0
0.255531855555555,14.0,0
0.2645664777777785,36.0,0
0.2723945388888885,29.0,0
0.2427516499999999,45.0,0
0.13650291666666656,19.0,1
0.02828812777777778,6.0,1
0.2022669277777779,61.0,0
0.18776917222222209,64.0,0
0.19075938333333314,39.0,0
0.19143827777777805,56.0,0
0.21482542777777763,59.0,0
0.1888571444444446,77.0,0
0.21713460000000048,69.0,0
0.24817119444444413,35.0,0
0.24847944444444345,52.0,0
0.22406925555555615,48.0,0
0.20229552777777823,63.0,0
0.20203156111111145,35.0,0
0.018491549999999992,7.0,1
0.12565670555555547,17.0,1
0.16579612777777772,29.0,0
0.01138057222222222,1.0,1
0.0015305444444444444,0.0,1
0.2259504499999994,38.0,0
0.2924339055555559,6.0,0
0.2508204500000002,18.0,0
0.2572057277777783,31.0,0
0.24417119444444416,48.0,0
0.25297316666666647,37.0,0
0.2591784111111109,45.0,0
0.23223953888888893,60.0,0
0.25611028888888887,40.0,0
0.2547768055555562,27.0,0
0.18534152222222236,12.0,1
0.20137497222222253,51.0,0
0.08192355555555565,24.0,0
0.11163687777777795,21.0,0
0.18531343888888865,61.0,0
0.2205162666666666,77.0,0
0.2266514722222228,70.0,0
0.24674853888888856,53.0,0
0.2311289611111104,32.0,0
0.18494267777777765,19.0,1
0.27380318333333303,33.0,0
0.19797531666666662,22.0,0
0.22180618888888962,24.0,0
0.2393676444444445,17.0,0
0.24451363888888786,26.0,0
0.27913542777777794,17.0,0
0.275734883333333,15.0,0
0.22199613888888822,8.0,0
0.28652240000000007,2.0,0
0.2907706555555548,5.0,0
0.2611029055555555,24.0,0
0.19310119444444454,43.0,0
0.28960082222222244,22.0,0
0.1883626722222225,62.0,0
0.1711535222222223,48.0,0
0.2928570833333334,9.0,0
0.25798600000000044,30.0,0
0.3259433555555557,0.0,0
0.2621078166666664,43.0,0
0.23057800555555574,54.0,0
0.2610492000000002,38.0,0
0.30342695000000036,7.0,0
0.25734884999999996,26.0,0
0.1981039000000004,12.0,1
0.12448118333333322,7.0,1
0.15619622777777803,23.0,0
0.16914220555555548,46.0,0
0.2306597722222224,26.0,0
0.22993728888888898,46.0,0
0.19662192777777787,17.0,1
0.14314944444444425,11.0,1
0.09116698333333337,4.0,1
0.14622986111111114,29.0,0
0.04083192222222225,4.0,1
0.1812027111111113,23.0,0
0.2643943111111116,32.0,0
0.2240579277777779,77.0,0
0.2514888722222212,37.0,0
0.25934312777777774,38.0,0
0.22929944999999932,46.0,0
0.25708248333333295,37.0,0
0.243187144444444,53.0,0
0.24673601666666672,64.0,0
0.251597905555556,40.0,0
0.25545207777777723,51.0,0
0.24776935555555554,42.0,0
0.21786441666666626,72.0,0
0.24317944999999994,35.0,0
0.13514508888888893,29.0,0
0.07929178333333327,2.0,1
0.16916433888888874,0.0,1
0.19266819444444425,0.0,1
0.189910622222222,0.0,1
0.16317800000000002,0.0,1
0.18368941666666672,0.0,1
0.2338710333333336,0.0,0
0.17220250555555575,0.0,1
0.1203977666666668,0.0,1
0.18127271666666672,0.0,1
0.21481040555555533,0.0,0
0.19998050000000067,0.0,1
0.22713069999999977,0.0,0
0.21021131666666684,0.0,0
0.20977501111111094,0.0,0
0.19703601666666615,0.0,1
0.21555310555555537,0.0,0
0.1998340722222225,0.0,1
0.2171308333333334,0.0,0
0.21654203888888854,0.0,0
0.16271531666666633,0.0,1
0.18906510555555536,0.0,1
0.2199279111111112,0.0,0
0.15952792222222228,0.0,1
0.10347947222222213,0.0,1
0.011567866666666673,0.0,1
0.16228787222222238,0.0,1
0.1926678333333336,0.0,1
0.136540538888889,0.0,1
0.1777152888888889,0.0,1
0.1703165944444447,0.0,1
0.20415622777777773,0.0,0
0.21363418888888858,0.0,0
0.231842366666667,0.0,0
0.18816228333333315,0.0,1
0.14580603333333328,0.0,1
0.1538799444444444,0.0,1
0.039345272222222206,0.0,1
0.06004646111111109,0.0,1
0.2427744111111116,0.0,0
0.1984749555555557,0.0,1
0.2342543611111113,0.0,0
0.19929264999999965,0.0,1
0.1959343722222223,0.0,1
0.24314313888888925,0.0,0
0.24454777222222215,0.0,0
0.21460534444444454,0.0,0
0.18420939444444423,0.0,1
0.20945434444444413,0.0,0
0.1728431611111111,0.0,1
0.1833380500000002,0.0,1
0.2102732222222223,0.0,0
0.1796374222222224,0.0,1
0.05887051111111115,0.0,1
0.1814716611111113,0.0,1
0.19244077777777735,0.0,1
0.17830613333333376,0.0,1
0.1194896499999999,0.0,1
0.034271538888888876,0.0,1
0.19968287777777774,0.0,1
0.23493020555555594,0.0,0
0.1537629833333333,0.0,1
0.17596259444444456,0.0,1
0.21218286666666686,0.0,0
0.1284309,0.0,1
0.21909431666666648,0.0,0
0.1126972222222221,0.0,1
0.20157481111111136,0.0,1
0.1755005111111116,0.0,1
0.1644809722222222,0.0,1
0.13612363333333322,0.0,1
0.170817916666667,0.0,1
0.17892669999999988,0.0,1
0.16958125555555564,0.0,1
0.1802009500000002,0.0,1
0.09962731111111106,0.0,1
0.07193297222222221,0.0,1
0.13224830000000004,0.0,1
0.14630918888888889,0.0,1
0.17476198888888894,0.0,1
0.1817029944444447,0.0,1
0.19179422222222253,0.0,1
0.1361594666666668,0.0,1
0.09646526111111109,0.0,1
0.13177114444444435,0.0,1
0.15481628333333317,0.0,1
0.0478716666666667,0.0,1
0.1787515333333333,0.0,1
0.184292477777778,0.0,1
0.12536213888888895,0.0,1
0.14355024444444447,0.0,1
0.1627034944444445,0.0,1
0.18147746111111132,0.0,1
0.16852631666666676,0.0,1
0.17604718333333327,0.0,1
0.12627140000000006,0.0,1
0.02892883888888889,0.0,1
0.23615642777777762,0.0,0
0.24505626666666688,0.0,0
0.20996833333333353,0.0,0
0.24669364444444503,0.0,0
0.22761499444444455,0.0,0
0.14303516666666638,0.0,1
0.052714272222222226,0.0,1
0.12169567222222206,0.0,1
0.19290881111111086,0.0,1
0.15785575000000027,0.0,1
0.2393865999999993,0.0,0
0.13036198333333343,0.0,1
0.22643960000000007,0.0,0
0.204826022222222,0.0,0
0.047879094444444464,0.0,1
0.14401103888888903,0.0,1
0.11165578888888886,0.0,1
0.12754318888888888,0.0,1
0.0437217611111111,0.0,1
0.1498355666666665,0.0,1
0.1884182777777776,0.0,1
0.17941774999999965,0.0,1
0.18756069444444431,0.0,1
0.22476760555555525,0.0,0
0.22295437222222175,0.0,0
0.16386016666666664,0.0,1
0.003652911111111111,0.0,1
0.009542344444444443,0.0,1
0.0784199111111112,0.0,1
0.1445938611111111,0.0,1
0.04672921666666669,0.0,1
0.10569967777777761,0.0,1
0.10862778333333316,0.0,1
0.09875566111111102,0.0,1
0.02791377222222222,0.0,1
0.04047417222222221,0.0,1
0.0938573277777778,0.0,1
0.013448294444444446,0.0,1
0.08260879999999993,0.0,1
0.059220133333333404,0.0,1
0.10337997222222232,0.0,1
0.04237840000000001,0.0,1
0.13911071666666674,0.0,1
0.11958182222222222,0.0,1
0.19971206666666663,0.0,1
0.14553291666666662,0.0,1
0.06412364444444445,0.0,1
0.11479065555555557,0.0,1
0.1379026833333333,0.0,1
0.00758440555555556,0.0,1
0.10286449444444434,0.0,1
0.19661852777777716,0.0,1
0.05950456111111102,0.0,1
0.11394541666666656,0.0,1
0.1833798444444446,0.0,1
0.1074684166666667,0.0,1
0.08633763888888883,0.0,1
0.17071727222222222,0.0,1
0.08504347777777777,0.0,1
0.026210672222222217,0.0,1
0.0012553944444444445,0.0,1
0.23776779444444415,0.0,0
0.2795153611111118,0.0,0
0.27986957222222275,0.0,0
0.26325068888888925,0.0,0
0.2776853166666663,0.0,0
0.258216094444445,0.0,0
0.24190482222222182,0.0,0
0.31119664444444495,0.0,0
0.2727134055555557,0.0,0
0.29425869444444447,0.0,0
0.313172555555556,0.0,0
0.30537139444444383,0.0,0
0.3137385555555549,0.0,0
0.30080382777777753,0.0,0
0.31601459444444413,0.0,0
0.3085591722222227,0.0,0
0.31042211666666664,0.0,0
0.3222218499999995,0.0,0
0.3099190833333323,0.0,0
0.31877825000000004,0.0,0
0.3329964555555551,0.0,0
0.3060725000000006,0.0,0
0.3138121555555553,0.0,0
0.32411974444444414,0.0,0
0.3317042388888898,0.0,0
0.3209348333333333,0.0,0
0.3355819666666669,0.0,0
0.31664329999999996,0.0,0
0.3240639166666675,0.0,0
0.3089811111111113,0.0,0
0.32262086666666606,0.0,0
0.3176273388888902,0.0,0
0.3365714388888891,0.0,0
0.3095329611111109,0.0,0
0.30744753333333413,0.0,0
0.2980925555555563,0.0,0
0.3089352722222228,0.0,0
0.33175004999999963,0.0,0
0.3290940944444451,0.0,0
0.3091308222222222,0.0,0
0.31643121666666574,0.0,0
0.30637739999999997,0.0,0
0.3257743833333331,0.0,0
0.30794227222222176,0.0,0
0.31569390555555593,0.0,0
0.32625441111111025,0.0,0
0.3363368555555552,0.0,0
0.3349070388888879,0.0,0
0.3388807944444448,0.0,0
0.33413079444444405,0.0,0
0.35618561666666704,0.0,0
0.3329459611111105,0.0,0
0.34767147222222256,0.0,0
0.3361319555555561,0.0,0
0.34069646111111146,0.0,0
0.3490255500000004,0.0,0
0.33985587222222263,0.0,0
0.3319188777777781,0.0,0
0.2810961944444437,0.0,0
0.29611770555555617,0.0,0
0.3338351944444447,0.0,0
0.33647643333333355,0.0,0
0.34872735000000077,0.0,0
0.34075725555555625,0.0,0
0.33507740555555615,0.0,0
0.34273228333333333,0.0,0
0.34365236111111,0.0,0
0.33514842222222196,0.0,0
0.3412680055555557,0.0,0
0.3106910888888889,0.0,0
0.3181742222222225,0.0,0
0.34196235555555604,0.0,0
0.3400667222222222,0.0,0
0.33130839444444454,0.0,0
0.3371648166666663,0.0,0
0.3368895722222223,0.0,0
0.32066943888888916,0.0,0
0.30518533888888866,0.0,0
0.31167804444444497,0.0,0
0.29722531111111117,0.0,0
0.3081701611111114,0.0,0
0.3238903222222226,0.0,0
0.29727302777777814,0.0,0
0.34061909999999923,0.0,0
0.31440050555555554,0.0,0
0.31248063888888794,0.0,0
0.2939873111111107,0.0,0
0.32759144999999995,0.0,0
0.31528146111111105,0.0,0
0.31769981666666697,0.0,0
0.3171932222222224,0.0,0
0.34064035000000004,0.0,0
0.3401679722222228,0.0,0
0.3391333000000003,0.0,0
0.32039243333333256,0.0,0
0.3125699444444446,0.0,0
0.33992008888888897,0.0,0
0.3426465222222231,0.0,0
0.34299952777777737,0.0,0
0.33729545000000044,0.0,0
0.34307551666666675,0.0,0
0.34753701666666764,0.0,0
0.3419543888888896,0.0,0
0.3279658444444451,0.0,0
0.323980338888889,0.0,0
0.312997394444445,0.0,0
0.32247453333333354,0.0,0
0.33981460555555604,0.0,0
0.34407613888888955,0.0,0
0.33258231111111214,0.0,0
0.34023324999999927,0.0,0
0.1488680444444445,0.0,1
0.05227469444444443,0.0,1
0.11476146666666662,0.0,1
0.06199253333333332,0.0,1
0.06005581111111109,0.0,1
0.12239253888888893,0.0,1
0.10624865555555549,0.0,1
0.1511094499999999,0.0,1
0.08265023888888882,0.0,1
0.09107273888888882,0.0,1
0.06106351111111111,0.0,1
0.08165165555555551,0.0,1
0.2032877555555556,0.0,0
0.07271207222222223,0.0,1
0.14608291111111113,0.0,1
0.11275500555555557,0.0,1
0.1608883388888887,0.0,1
0.09868557777777787,0.0,1
0.02284666666666666,0.0,1
0.08546482777777781,0.0,1
0.15801511111111136,0.0,1
0.1647751611111106,0.0,1
0.04984076666666669,0.0,1
0.11426812222222221,0.0,1
0.0779599500000001,0.0,1
0.12201816666666689,0.0,1
0.17936458333333333,0.0,1
0.12368691111111105,0.0,1
0.06953924999999997,0.0,1
0.08279674444444461,0.0,1
0.14878534999999968,0.0,1
0.13799830555555564,0.0,1
0.1257657444444446,0.0,1
0.08590265000000016,0.0,1
0.0372263888888889,0.0,1
0.10165668888888872,0.0,1
0.212658527777778,0.0,0
0.12371169444444442,0.0,1
0.12260237222222214,0.0,1
0.11685733333333338,0.0,1
0.05678532777777779,0.0,1
0.03452418333333332,0.0,1
0.1658085499999998,0.0,1
0.12348173333333343,0.0,1
0.1258800833333332,0.0,1
0.11568701666666681,0.0,1
0.17803108333333323,0.0,1
0.06860148888888891,0.0,1
0.10388512222222222,0.0,1
0.022608011111111114,0.0,1
0.04292124444444447,0.0,1
0.026367272222222217,0.0,1
0.02474759444444444,0.0,1
0.04184057222222222,0.0,1
0.0027454999999999997,0.0,1
0.010182266666666669,0.0,1
0.0006998277777777779,0.0,1
0.0002711888888888889,0.0,1
0.00013550555555555554,0.0,1
0.006927672222222223,0.0,1
0.03593348333333334,0.0,1
0.010005649999999998,0.0,1
0.0008387111111111111,0.0,1
0.006820472222222221,0.0,1
0.005614372222222223,0.0,1
0.0023140222222222226,0.0,1
0.022187583333333337,0.0,1
0.022541183333333346,0.0,1
0.05768269444444446,0.0,1
0.07012596111111113,0.0,1
0.0760439777777777,0.0,1
0.010092211111111101,0.0,1
0.008519333333333335,0.0,1
0.03581299444444446,0.0,1
0.0023734555555555556,0.0,1
0.0034889944444444435,0.0,1
0.08060775555555565,0.0,1
0.1118214277777777,0.0,1
0.12842528888888874,0.0,1
0.010761438888888884,0.0,1
0.029137899999999998,0.0,1
0.07254634444444437,0.0,1
0.0043542500000000005,0.0,1
0.014892866666666666,0.0,1
0.002331838888888889,0.0,1
0.0016159777777777777,0.0,1
0.0013018555555555558,0.0,1
0.0009317833333333333,0.0,1
0.002149216666666667,0.0,1
0.0012308,0.0,1
0.0007566055555555556,0.0,1
0.003361538888888889,0.0,1
0.0071864611111111115,0.0,1
0.0057520777777777775,0.0,1
0.00048033333333333337,0.0,1
0.19524354444444422,1.0,1
0.2818493722222228,0.0,0
0.2783551000000005,0.0,0
0.2645398000000003,0.0,0
0.27734557222222217,0.0,0
0.25933006111111095,0.0,0
0.24120816666666656,0.0,0
0.3079605888888889,0.0,0
0.26825563333333313,0.0,0
0.2960464277777779,0.0,0
0.31446842222222254,0.0,0
0.3079993666666658,0.0,0
0.30918121111111035,0.0,0
0.30211438333333346,0.0,0
0.3152019888888887,0.0,0
0.3125015611111113,0.0,0
0.31023140000000005,0.0,0
0.32132801666666694,0.0,0
0.3092272055555545,0.0,0
0.3157214555555553,0.0,0
0.3374929555555552,0.0,0
0.30672616111111206,0.0,0
0.310963477777778,0.0,0
0.3234202277777784,0.0,0
0.33300917222222265,0.0,0
0.3225178333333328,0.0,0
0.33258526111111114,0.0,0
0.3172311777777774,0.0,0
0.32713470555555596,0.0,0
0.3093461944444448,0.0,0
0.3215849499999996,0.0,0
0.31551796666666765,0.0,0
0.33440270555555623,0.0,0
0.3126565333333331,0.0,0
0.3079238055555565,0.0,0
0.29551421111111215,0.0,0
0.3100377000000011,0.0,0
0.32941045000000035,0.0,0
0.3301235000000007,0.0,0
0.30947065555555586,0.0,0
0.3181581888888886,0.0,0
0.3036640055555558,0.0,0
0.32639541666666566,0.0,0
0.31221673888888896,0.0,0
0.3097128444444447,0.0,0
0.3266238999999992,0.0,0
0.3364253111111109,0.0,0
0.33813877777777623,0.0,0
0.3358244000000002,0.0,0
0.3329451555555549,0.0,0
0.3553564999999996,0.0,0
0.3348224111111109,0.0,0
0.34846627777777744,0.0,0
0.3341268944444444,0.0,0
0.3426393388888884,0.0,0
0.3470577222222217,0.0,0
0.3445783833333339,0.0,0
0.32871641666666623,0.0,0
0.2876084444444439,0.0,0
0.28963097777777785,0.0,0
0.334022,0.0,0
0.33628978333333365,0.0,0
0.3508197277777783,0.0,0
0.3376435111111115,0.0,0
0.33524646111111195,0.0,0
0.34349921666666583,0.0,0
0.3455795166666658,0.0,0
0.33272161111111076,0.0,0
0.34505683333333353,0.0,0
0.3090116166666666,0.0,0
0.3166112388888892,0.0,0
0.34236543333333375,0.0,0
0.3389123055555554,0.0,0
0.3323799555555552,0.0,0
0.34384004444444444,0.0,0
0.3323710999999999,0.0,0
0.3189842277777788,0.0,0
0.30858025555555557,0.0,0
0.3125379888888892,0.0,0
0.29731936111111135,0.0,0
0.30768492222222205,0.0,0
0.32214557777777814,0.0,0
0.29569315555555564,0.0,0
0.34078156111111096,0.0,0
0.3180484888888882,0.0,0
0.31046672777777734,0.0,0
0.2970715666666671,0.0,0
0.32616848888888866,0.0,0
0.31226417222222164,0.0,0
0.3155061333333338,0.0,0
0.31846890555555524,0.0,0
0.3396837388888889,0.0,0
0.33946305555555617,0.0,0
0.34103640555555526,0.0,0
0.32083816111111113,0.0,0
0.31327223333333365,0.0,0
0.3369697388888897,0.0,0
0.3440835611111132,0.0,0
0.33982326666666646,0.0,0
0.3391867944444448,0.0,0
0.3410238055555551,0.0,0
0.35086624444444486,0.0,0
0.34382666111111154,0.0,0
0.3310571666666674,0.0,0
0.32295476666666667,0.0,0
0.31031338333333375,0.0,0
0.3215210500000005,0.0,0
0.34119216111111106,0.0,0
0.3434501055555556,0.0,0
0.33015477777777835,0.0,0
0.3401743666666663,0.0,0
0.1548748222222222,0.0,1
0.0002756944444444444,0.0,1
0.034792316666666656,0.0,1
0.0037098277777777786,0.0,1
0.09240903888888885,0.0,1
0.07800642222222218,0.0,1
0.08195069999999995,0.0,1
0.07008568333333334,0.0,1
0.03652262777777779,0.0,1
0.0025374777777777777,0.0,1
0.05256655555555556,0.0,1
0.1144152944444444,0.0,1
0.16781720555555543,0.0,1
0.21608138888888906,0.0,0
0.213969016666667,0.0,0
0.2006104666666665,0.0,1
0.2595271333333334,0.0,0
0.249798633333333,0.0,0
0.2097653944444444,0.0,0
0.18031955000000005,0.0,1
0.24643567222222168,0.0,0
0.22955082222222203,0.0,0
0.21033697777777777,0.0,0
0.20509792222222184,0.0,0
0.20704693333333313,0.0,0
0.15322991111111067,0.0,1
0.10896927222222236,0.0,1
0.1948558944444443,0.0,1
0.1534560611111113,0.0,1
0.20655014444444456,0.0,0
0.14216845555555546,0.0,1
0.04641103888888887,0.0,1
0.11733844999999991,0.0,1
0.0916899944444444,0.0,1
0.009905399999999996,0.0,1
0.16131383333333332,0.0,1
0.012305999999999997,0.0,1
0.03177309999999999,0.0,1
0.1225790166666668,0.0,1
0.09293359444444436,0.0,1
0.14465932777777782,0.0,1
0.11946562222222228,0.0,1
0.030040261111111115,0.0,1
0.04695557777777783,0.0,1
0.10295626666666671,0.0,1
0.14485780000000012,0.0,1
0.09265262222222219,0.0,1
0.12300495555555567,0.0,1
0.03069320555555556,0.0,1
0.05413663333333334,0.0,1
0.11442311111111107,0.0,1
0.20007039444444455,0.0,1
0.0909269333333333,0.0,1
0.1265968277777777,0.0,1
0.19375421111111113,0.0,1
0.148014116666667,0.0,1
0.03592017222222219,0.0,1
0.08463647777777779,0.0,1
0.0565513722222222,0.0,1
0.11191623888888887,0.0,1
0.07119118888888895,0.0,1
0.15022817777777758,0.0,1
0.054252933333333336,0.0,1
0.1669666499999998,0.0,1
0.22669197777777775,0.0,0
0.2378808722222221,0.0,0
0.25543928333333366,0.0,0
0.16936696111111096,0.0,1
0.1574736722222224,0.0,1
0.11977814444444446,0.0,1
0.0007939611111111111,0.0,1
0.01782395555555556,0.0,1
0.13454685,0.0,1
0.07540741666666657,0.0,1
0.09378887777777777,0.0,1
0.15445996111111096,0.0,1
0.15866095000000005,0.0,1
0.220093427777778,0.0,0
0.16671307222222256,0.0,1
0.024696877777777775,0.0,1
0.2364230666666664,0.0,0
0.203472977777778,0.0,0
0.10852347777777785,0.0,1
0.07074091111111107,0.0,1
0.09945087777777789,0.0,1
0.25572325555555575,0.0,0
0.23390361111111124,0.0,0
0.13607653888888882,0.0,1
0.1450977833333335,0.0,1
0.05389466666666673,0.0,1
0.020353949999999982,0.0,1
0.04525279999999997,0.0,1
0.040718972222222184,0.0,1
0.0529401722222222,0.0,1
0.10243702222222213,0.0,1
0.04355092777777778,0.0,1
0.07539695555555553,0.0,1
0.0700608888888889,0.0,1
0.05849155,0.0,1
0.08779313888888889,0.0,1
0.07768972222222227,0.0,1
0.29227242222222277,0.0,0
0.27965713888888893,0.0,0
0.2746125444444448,0.0,0
0.2635445222222229,0.0,0
0.2762688222222225,0.0,0
0.25272335000000035,0.0,0
0.2606155055555553,0.0,0
0.2952329888888886,0.0,0
0.28584512222222236,0.0,0
0.2867196055555555,0.0,0
0.32799460000000036,0.0,0
0.29892201111111055,0.0,0
0.31812418888888916,0.0,0
0.29075407777777784,0.0,0
0.32643922777777756,0.0,0
0.3012785166666662,0.0,0
0.31783270555555615,0.0,0
0.3312943499999995,0.0,0
0.3010288222222214,0.0,0
0.3273429888888893,0.0,0
0.3204908611111115,0.0,0
0.3097884722222217,0.0,0
0.31852203888888864,0.0,0
0.32671871666666674,0.0,0
0.3291321055555554,0.0,0
0.3235659944444447,0.0,0
0.3307071444444446,0.0,0
0.31762698333333395,0.0,0
0.32144048888888943,0.0,0
0.3052996722222224,0.0,0
0.33344878888888857,0.0,0
0.3116583777777786,0.0,0
0.33964277777777846,0.0,0
0.2944428777777778,0.0,0
0.3081517999999996,0.0,0
0.3045224111111115,0.0,0
0.31511316111111093,0.0,0
0.3351838111111106,0.0,0
0.32555347222222264,0.0,0
0.3125140333333342,0.0,0
0.29641697222222174,0.0,0
0.3232992722222222,0.0,0
0.31879225000000105,0.0,0
0.30737992222222255,0.0,0
0.31087477777777767,0.0,0
0.3421457388888873,0.0,0
0.33567293333333337,0.0,0
0.3311887777777781,0.0,0
0.3389693888888899,0.0,0
0.34367381666666785,0.0,0
0.349727888888889,0.0,0
0.3376856888888888,0.0,0
0.34570103333333324,0.0,0
0.32784113333333426,0.0,0
0.3507592277777762,0.0,0
0.3475370944444452,0.0,0
0.33506005555555596,0.0,0
0.32974425555555537,0.0,0
0.2565299888888883,0.0,0
0.3218926722222231,0.0,0
0.32932447222222283,0.0,0
0.3493495944444444,0.0,0
0.34729377777777776,0.0,0
0.33833073888888926,0.0,0
0.33943900555555645,0.0,0
0.3370743388888887,0.0,0
0.34030541666666647,0.0,0
0.34278413888888887,0.0,0
0.32591992222222194,0.0,0
0.3049172777777785,0.0,0
0.33604468888888867,0.0,0
0.3420659833333337,0.0,0
0.33732659444444524,0.0,0
0.333602688888889,0.0,0
0.3403337833333325,0.0,0
0.3290832111111107,0.0,0
0.3093054055555565,0.0,0
0.317034011111111,0.0,0
0.2977084444444455,0.0,0
0.30680396666666615,0.0,0
0.31489803333333316,0.0,0
0.31304382222222166,0.0,0
0.31199420555555585,0.0,0
0.3359644722222225,0.0,0
0.3103442777777775,0.0,0
0.30161080555555503,0.0,0
0.3047002111111104,0.0,0
0.3326449277777771,0.0,0
0.30437449999999955,0.0,0
0.3259497388888896,0.0,0
0.31686121666666733,0.0,0
0.3451676555555551,0.0,0
0.33633227222222245,0.0,0
0.337232700000001,0.0,0
0.316115505555555,0.0,0
0.3219871500000005,0.0,0
0.34439970555555727,0.0,0
0.34220108888889067,0.0,0
0.34333263888888904,0.0,0
0.333752588888889,0.0,0
0.3410709111111106,0.0,0
0.3529931999999991,0.0,0
0.33435356666666777,0.0,0
0.3288133500000015,0.0,0
0.31624687777777843,0.0,0
0.31625883888888984,0.0,0
0.3267162666666668,0.0,0
0.34076485000000056,0.0,0
0.3474337388888905,0.0,0
0.33299463888888914,0.0,0
0.3340582166666666,0.0,0
0.19996812777777762,0.0,1
0.04058004444444444,0.0,1
0.10438893333333318,0.0,1
0.039791866666666675,0.0,1
0.03523595555555556,0.0,1
0.005076466666666666,0.0,1
0.009984944444444444,0.0,1
0.019744133333333337,0.0,1
0.007311261111111109,0.0,1
0.02795766666666665,0.0,1
0.0411825277777778,0.0,1
0.10565404999999999,0.0,1
0.10425963888888902,0.0,1
0.09734980555555534,0.0,1
0.14306144444444424,0.0,1
0.2053341166666663,0.0,0
0.22616325000000048,0.0,0
0.19686490555555602,0.0,1
0.19654897777777788,0.0,1
0.192006744444444,0.0,1
0.18686088333333314,0.0,1
0.17329514444444438,0.0,1
0.16296436666666594,0.0,1
0.18318355000000006,0.0,1
0.18249476666666653,0.0,1
0.18301528333333325,0.0,1
0.17555585555555556,0.0,1
0.17232583888888892,0.0,1
0.04670653888888897,0.0,1
0.009006422222222222,0.0,1
0.03246867222222223,0.0,1
0.00015381666666666667,0.0,1
0.09664867222222215,0.0,1
0.1415115166666668,0.0,1
0.023778733333333347,0.0,1
0.10155964999999985,0.0,1
0.21002060000000042,0.0,0
0.21496485000000012,0.0,0
0.20356506666666738,0.0,0
0.20357395555555552,0.0,0
0.14486751111111093,0.0,1
0.18371705555555537,0.0,1
0.10670366111111108,0.0,1
0.01004314444444444,0.0,1
0.00014815555555555557,0.0,1
0.0026265944444444447,0.0,1
0.21173177222222211,0.0,0
0.20697959444444441,0.0,0
0.204908316666667,0.0,0
0.19760587222222284,0.0,1
0.10074278888888889,0.0,1
0.062499150000000024,0.0,1
0.21633446666666648,0.0,0
0.23021766666666735,0.0,0
0.19221543333333324,0.0,1
0.23209992222222273,0.0,0
0.21009763333333367,0.0,0
0.19692167222222187,0.0,1
0.14028577777777748,0.0,1
0.17159859444444447,0.0,1
0.21270038333333344,0.0,0
0.014267100000000001,0.0,1
0.0012276722222222224,0.0,1
0.09282749444444435,0.0,1
0.20570269999999966,0.0,0
0.1839016666666664,0.0,1
0.22197535555555575,0.0,0
0.2077056111111113,0.0,0
0.20687200555555557,0.0,0
0.12793178888888895,0.0,1
0.09080547777777762,0.0,1
0.22113162222222257,0.0,0
0.2333548166666669,0.0,0
0.24237970555555516,0.0,0
0.1633410500000001,0.0,1
0.0010941666666666667,0.0,1
0.020043338888888897,0.0,1
0.01085103888888889,0.0,1
0.0034376499999999996,0.0,1
0.05352190555555554,0.0,1
0.14402131111111144,0.0,1
0.17098713888888872,0.0,1
0.09548931666666673,0.0,1
0.11116613333333321,0.0,1
0.016377794444444444,0.0,1
0.10957687222222227,0.0,1
0.0579664555555556,0.0,1
0.0028035111111111115,0.0,1
0.0028126722222222224,0.0,1
0.009535594444444444,0.0,1
0.03459657222222222,0.0,1
0.059253077777777746,0.0,1
0.008364594444444446,0.0,1
0.02342522777777777,0.0,1
0.05583978888888887,0.0,1
0.04545701111111108,0.0,1
0.0115651,0.0,1
0.0008665555555555556,0.0,1
0.0005108555555555556,0.0,1
0.02047835555555555,0.0,1
0.043239383333333346,0.0,1
0.11514688888888894,0.0,1
0.03559838333333335,0.0,1
0.012960494444444444,0.0,1
0.13310426666666667,0.0,1
0.10307512222222227,0.0,1
0.030962550000000016,0.0,1
0.2162092999999998,0.0,0
0.05293713333333338,0.0,1
0.0036021833333333333,0.0,1
0.010152838888888894,0.0,1
0.009441416666666667,0.0,1
0.012273111111111111,0.0,1
0.021386644444444446,0.0,1
0.02266728333333333,0.0,1
0.18654019444444475,0.0,1
0.21800370555555518,0.0,0
0.254369916666666,0.0,0
0.04839557222222226,0.0,1
0.09712660555555548,0.0,1
0.0575646222222222,0.0,1
0.0126419,0.0,1
0.0025793055555555556,0.0,1
0.020931472222222216,0.0,1
0.06598620555555552,0.0,1
0.020958411111111113,0.0,1
0.05383187222222226,0.0,1
0.10021738333333327,0.0,1
0.11721563333333333,0.0,1
0.1002779055555555,0.0,1
0.12159724999999996,0.0,1
0.167613972222222,0.0,1
0.08870785555555555,0.0,1
0.11054534444444461,0.0,1
0.056264944444444444,0.0,1
0.042923911111111136,0.0,1
0.017496294444444446,0.0,1
0.08671457777777772,0.0,1
0.06627834999999999,0.0,1
0.0006680999999999998,0.0,1
0.026321888888888888,0.0,1
0.16986853333333307,0.0,1
0.2846382666666669,0.0,0
0.27833085000000024,0.0,0
0.26468922222222263,0.0,0
0.27388170555555563,0.0,0
0.2611869222222222,0.0,0
0.25048407222222197,0.0,0
0.29313433888888857,0.0,0
0.2704022166666663,0.0,0
0.2961382722222217,0.0,0
0.3085371666666668,0.0,0
0.3149215499999999,0.0,0
0.30515130000000057,0.0,0
0.3096800055555559,0.0,0
0.3064555722222228,0.0,0
0.31598815,0.0,0
0.3031235277777771,0.0,0
0.32471420000000056,0.0,0
0.3169657555555551,0.0,0
0.31174296666666673,0.0,0
0.33256251111111196,0.0,0
0.31224453888888887,0.0,0
0.3091975222222231,0.0,0
0.3227698166666675,0.0,0
0.33123920555555536,0.0,0
0.32388665555555535,0.0,0
0.33052005000000023,0.0,0
0.3195749333333333,0.0,0
0.3272852222222216,0.0,0
0.31414097222222326,0.0,0
0.31314841666666693,0.0,0
0.3214210722222224,0.0,0
0.3287441388888886,0.0,0
0.3241905499999995,0.0,0
0.29771050555555645,0.0,0
0.2996527777777781,0.0,0
0.3055517500000005,0.0,0
0.3275883000000007,0.0,0
0.3388929333333341,0.0,0
0.30818545555555615,0.0,0
0.31738573888888844,0.0,0
0.2992212388888893,0.0,0
0.3261756722222224,0.0,0
0.31949553333333336,0.0,0
0.3006265833333334,0.0,0
0.326938633333332,0.0,0
0.3370842722222217,0.0,0
0.33793983333333133,0.0,0
0.33526129444444486,0.0,0
0.3298392777777779,0.0,0
0.35865341111111093,0.0,0
0.3373994111111115,0.0,0
0.34985399999999955,0.0,0
0.3342250777777774,0.0,0
0.3380076444444436,0.0,0
0.34474050000000006,0.0,0
0.34921549444444494,0.0,0
0.32711218888888804,0.0,0
0.3089196777777777,0.0,0
0.2667935944444448,0.0,0
0.3380757388888888,0.0,0
0.33153456666666653,0.0,0
0.3519870777777775,0.0,0
0.33702330555555604,0.0,0
0.33618391111111084,0.0,0
0.34241155555555625,0.0,0
0.3473277833333331,0.0,0
0.33418910555555664,0.0,0
0.3458431111111108,0.0,0
0.3113160666666662,0.0,0
0.3102892555555555,0.0,0
0.34419206111111084,0.0,0
0.33813409444444464,0.0,0
0.336091738888888,0.0,0
0.3385662555555558,0.0,0
0.3364628999999991,0.0,0
0.317610244444445,0.0,0
0.31134218333333347,0.0,0
0.3179098055555559,0.0,0
0.2969879611111112,0.0,0
0.30709326111111107,0.0,0
0.3222707388888896,0.0,0
0.2919166055555558,0.0,0
0.3394375944444438,0.0,0
0.3232882555555552,0.0,0
0.30855484444444414,0.0,0
0.2984293722222219,0.0,0
0.3211894722222219,0.0,0
0.31427396111111056,0.0,0
0.31540789444444506,0.0,0
0.3188900611111115,0.0,0
0.33526302777777833,0.0,0
0.3383908055555571,0.0,0
0.3400658777777781,0.0,0
0.32383635000000066,0.0,0
0.31502579999999997,0.0,0
0.33147933888888886,0.0,0
0.3454135000000001,0.0,0
0.3410175166666674,0.0,0
0.3395127833333329,0.0,0
0.3374207777777783,0.0,0
0.3518265666666675,0.0,0
0.3442425222222228,0.0,0
0.332281177777779,0.0,0
0.3254837722222237,0.0,0
0.3142387666666678,0.0,0
0.32062763333333383,0.0,0
0.3346185388888891,0.0,0
0.34300960000000036,0.0,0
0.3319852611111125,0.0,0
0.3426884500000008,0.0,0
0.20359090000000032,0.0,0
0.0002756944444444444,0.0,1
0.03301042222222221,0.0,1
0.005491722222222222,0.0,1
0.054934799999999964,0.0,1
0.11548066111111108,0.0,1
0.06870882222222217,0.0,1
0.07958663333333328,0.0,1
0.027700499999999996,0.0,1
0.013109505555555559,0.0,1
0.027824588888888894,0.0,1
0.14101365555555564,0.0,1
0.15859006666666667,0.0,1
0.1981975722222221,0.0,1
0.2094658611111111,0.0,0
0.2055868888888888,0.0,0
0.2489601888888889,0.0,0
0.24776756111111103,0.0,0
0.20871382222222204,0.0,0
0.19118974999999927,0.0,1
0.24012671666666632,0.0,0
0.22906381111111082,0.0,0
0.21964744444444423,0.0,0
0.20386467777777764,0.0,0
0.227559311111111,0.0,0
0.13147859999999964,0.0,1
0.11241792777777783,0.0,1
0.18492454444444434,0.0,1
0.16462146111111128,0.0,1
0.20451565555555568,0.0,0
0.16249411666666672,0.0,1
0.032792694444444465,0.0,1
0.13075837222222225,0.0,1
0.0868185000000001,0.0,1
0.01684797777777778,0.0,1
0.14112205555555557,0.0,1
0.03700704444444448,0.0,1
0.029983949999999995,0.0,1
0.11467529444444458,0.0,1
0.07980797777777776,0.0,1
0.13556577222222224,0.0,1
0.14401503888888886,0.0,1
0.037556472222222234,0.0,1
0.035427905555555576,0.0,1
0.09107067777777766,0.0,1
0.1430444111111111,0.0,1
0.11460117777777767,0.0,1
0.11501693333333349,0.0,1
0.041019716666666685,0.0,1
0.04517431666666667,0.0,1
0.09867320555555542,0.0,1
0.19676416666666674,0.0,1
0.1170983777777777,0.0,1
0.09570311666666667,0.0,1
0.197016161111111,0.0,1
0.15465602777777776,0.0,1
0.031318533333333336,0.0,1
0.10950042777777787,0.0,1
0.046410122222222225,0.0,1
0.10941547777777771,0.0,1
0.061449027777777825,0.0,1
0.1564599333333333,0.0,1
0.05063087222222224,0.0,1
0.15681740555555546,0.0,1
0.22623615,0.0,0
0.2337519166666664,0.0,0
0.26118041666666636,0.0,0
0.16349200555555557,0.0,1
0.17256533888888895,0.0,1
0.14284295555555554,0.0,1
0.01861791666666667,0.0,1
0.08959088333333337,0.0,1
0.09643214444444456,0.0,1
0.0852918444444445,0.0,1
0.17693871666666663,0.0,1
0.14327450000000017,0.0,1
0.2218671222222224,0.0,0
0.18393478888888945,0.0,1
0.024119944444444465,0.0,1
0.21485281111111093,0.0,0
0.22330600555555546,0.0,0
0.11717819444444444,0.0,1
0.0660305833333333,0.0,1
0.08595441666666673,0.0,1
0.23630486111111124,0.0,0
0.23693767777777794,0.0,0
0.14154327222222235,0.0,1
0.14971202777777792,0.0,1
0.07133905555555553,0.0,1
0.027419700000000005,0.0,1
0.04374662777777774,0.0,1
0.04222514444444442,0.0,1
0.04641336666666663,0.0,1
0.10181940555555553,0.0,1
0.030626905555555542,0.0,1
0.08753591666666666,0.0,1
0.0674866888888889,0.0,1
0.06899523333333332,0.0,1
0.06937106666666662,0.0,1
0.07834524444444445,0.0,1
0.2672045055555555,0.0,0
0.2782136000000007,0.0,0
0.2793509222222227,0.0,0
0.26289147222222237,0.0,0
0.27719672222222214,0.0,0
0.2586603000000006,0.0,0
0.24696459999999942,0.0,0
0.3035124166666676,0.0,0
0.2793421833333331,0.0,0
0.2909263611111111,0.0,0
0.3178141944444453,0.0,0
0.30455446111111095,0.0,0
0.31640001666666556,0.0,0
0.2964014944444443,0.0,0
0.3179145222222227,0.0,0
0.30787517222222266,0.0,0
0.3134654222222225,0.0,0
0.3292995888888881,0.0,0
0.2986398944444441,0.0,0
0.3290823333333331,0.0,0
0.32431251666666727,0.0,0
0.3084214444444453,0.0,0
0.316216644444444,0.0,0
0.32579305555555615,0.0,0
0.331951600000001,0.0,0
0.322347872222223,0.0,0
0.33196855,0.0,0
0.3173270333333329,0.0,0
0.3220612222222229,0.0,0
0.3050096666666667,0.0,0
0.33026736111111005,0.0,0
0.3166789055555567,0.0,0
0.3361581722222225,0.0,0
0.29772929999999986,0.0,0
0.3117030944444441,0.0,0
0.30266676666666703,0.0,0
0.30820721666666695,0.0,0
0.336748855555555,0.0,0
0.32637326666666683,0.0,0
0.3118548555555561,0.0,0
0.308010566666665,0.0,0
0.3158107222222219,0.0,0
0.3213234388888886,0.0,0
0.3058558222222212,0.0,0
0.3136776555555554,0.0,0
0.33253605555555404,0.0,0
0.33582283888888875,0.0,0
0.3338927055555548,0.0,0
0.34066501666666793,0.0,0
0.3382427499999994,0.0,0
0.3575815999999994,0.0,0
0.3308123444444444,0.0,0
0.34549495555555526,0.0,0
0.33258673888888995,0.0,0
0.34613465555555584,0.0,0
0.3504617944444452,0.0,0
0.3362517444444447,0.0,0
0.3285464111111112,0.0,0
0.2669025444444441,0.0,0
0.3105702777777782,0.0,0
0.33559408333333424,0.0,0
0.33858687777777796,0.0,0
0.3492963444444448,0.0,0
0.3410354777777779,0.0,0
0.33586321111111184,0.0,0
0.34165773333333416,0.0,0
0.33826427777777757,0.0,0
0.3401400999999999,0.0,0
0.3385675722222231,0.0,0
0.30300905555555574,0.0,0
0.3288505111111108,0.0,0
0.3378321111111116,0.0,0
0.3454104333333335,0.0,0
0.3319124666666662,0.0,0
0.3355754555555547,0.0,0
0.3336408388888893,0.0,0
0.31636107222222226,0.0,0
0.31004532222222253,0.0,0
0.3077751277777782,0.0,0
0.30037643333333275,0.0,0
0.30880101111111097,0.0,0
0.3203276888888894,0.0,0
0.3054176833333329,0.0,0
0.33650555000000065,0.0,0
0.31051605555555617,0.0,0
0.306990966666666,0.0,0
0.2978632111111114,0.0,0
0.3334189111111115,0.0,0
0.31107330555555524,0.0,0
0.3240663611111114,0.0,0
0.3117196833333335,0.0,0
0.34521417777777735,0.0,0
0.33796811111111097,0.0,0
0.33491552222222226,0.0,0
0.31874068333333283,0.0,0
0.3178140055555549,0.0,0
0.3433001000000007,0.0,0
0.34261068888889035,0.0,0
0.3443519777777785,0.0,0
0.33293214444444413,0.0,0
0.34203925000000085,0.0,0
0.35127237222222196,0.0,0
0.3391343000000005,0.0,0
0.329755344444445,0.0,0
0.3171251333333337,0.0,0
0.31416545000000046,0.0,0
0.32602195555555635,0.0,0
0.3418034666666684,0.0,0
0.3443244111111123,0.0,0
0.331828133333334,0.0,0
0.335385766666666,0.0,0
0.2213166777777773,0.0,0
0.07012803888888891,0.0,1
0.10376747222222207,0.0,1
0.036346588888888906,0.0,1
0.004630416666666666,0.0,1
0.007471722222222222,0.0,1
0.03284069999999999,0.0,1
0.0013904166666666665,0.0,1
0.02394483333333333,0.0,1
0.004393827777777777,0.0,1
0.007311261111111109,0.0,1
0.006258827777777778,0.0,1
0.04791039444444449,0.0,1
0.01497097222222222,0.0,1
0.07557423888888887,0.0,1
0.13433945,0.0,1
0.09734980555555534,0.0,1
0.11419026666666657,0.0,1
0.19893864444444434,0.0,1
0.22743902222222276,0.0,0
0.2043930333333337,0.0,0
0.19037587222222255,0.0,1
0.19610858888888846,0.0,1
0.18276427777777707,0.0,1
0.1798229222222223,0.0,1
0.16569786666666686,0.0,1
0.1811474611111108,0.0,1
0.17894894999999972,0.0,1
0.18320194999999953,0.0,1
0.1759493111111113,0.0,1
0.1779254277777779,0.0,1
0.06947807222222235,0.0,1
0.004264250000000001,0.0,1
0.03415845000000002,0.0,1
0.0030523944444444443,0.0,1
0.00015381666666666667,0.0,1
0.07557853888888884,0.0,1
0.1625816499999997,0.0,1
0.023778733333333347,0.0,1
0.06385460555555553,0.0,1
0.21413649444444507,0.0,0
0.21164628333333335,0.0,0
0.21246531111111175,0.0,0
0.21458186666666654,0.0,0
0.13617796111111088,0.0,1
0.18245614999999984,0.0,1
0.11453549999999972,0.0,1
0.029161322222222227,0.0,1
0.0027747499999999994,0.0,1
0.17786870000000016,0.0,1
0.208019361111111,0.0,0
0.20240245000000037,0.0,0
0.2009181888888892,0.0,1
0.13158418888888876,0.0,1
0.03115847777777776,0.0,1
0.21370715555555528,0.0,0
0.23331905555555582,0.0,0
0.1967750722222217,0.0,1
0.22355165000000016,0.0,0
0.22602219444444466,0.0,0
0.18838563333333314,0.0,1
0.14534692777777777,0.0,1
0.1671475666666665,0.0,1
0.21376904999999996,0.0,0
0.041230472222222196,0.0,1
0.0012276722222222224,0.0,1
0.05813768888888887,0.0,1
0.21687626111111083,0.0,0
0.18682786111111094,0.0,1
0.21160291666666703,0.0,0
0.21163879444444406,0.0,0
0.2019611388888894,0.0,0
0.13307730555555544,0.0,1
0.09122000555555561,0.0,1
0.2096327277777778,0.0,0
0.23789629999999962,0.0,0
0.23508558333333315,0.0,0
0.1930056777777782,0.0,1
0.010967033333333334,0.0,1
